<svg width="91" height="18" viewBox="0 0 91 18" fill="none" xmlns="http://www.w3.org/2000/svg">
<g clip-path="url(#clip0_126_12159)">
<path d="M12.7188 6.3126V11.6873L8.06494 14.3752V17.7346L15.6298 13.3676V4.63239L12.7188 6.3126Z" fill="#00AC69"/>
<path d="M8.06483 3.62582L12.7187 6.31263L15.6297 4.63241L8.06483 0.265381L0.5 4.63241L3.40989 6.31263L8.06483 3.62582Z" fill="#1CE783"/>
<path d="M5.15495 10.6807V16.0555L8.06483 17.7346V9.00052L0.5 4.63239V7.99282L5.15495 10.6807Z" fill="#1D252C"/>
<path d="M26.0131 4.6203C24.3845 4.6203 23.6131 5.64887 23.6131 5.64887H23.5274L23.357 4.79173H21.3845V13.5346H23.5274V8.47964C23.5274 7.36536 24.2966 6.59393 25.4131 6.59393C26.5296 6.59393 27.2988 7.36316 27.2988 8.47964V13.5346H29.4417V8.30601C29.4417 6.07744 27.9845 4.6203 26.0131 4.6203Z" fill="#1D252C"/>
<path d="M49.1231 10.5346H49L47.5428 4.79175H45.3626L43.9055 10.5346H43.7835L42.3253 4.79175H40.0967L42.3253 13.5346H44.9351L46.3912 7.87746H46.5143L47.9714 13.5346H50.5802L52.8088 4.79175H50.5802L49.1231 10.5346Z" fill="#1D252C"/>
<path d="M59.3704 5.56318H59.2847L59.1132 4.79395H57.3132V13.5357H59.4561V8.48076C59.4561 7.36647 59.9704 6.85219 61.0847 6.85219H62.1836V4.79285H60.9088C60.6103 4.79348 60.316 4.86339 60.049 4.99706C59.782 5.13072 59.5497 5.32451 59.3704 5.56318V5.56318Z" fill="#1D252C"/>
<path d="M66.9253 4.6203C64.355 4.6203 62.4692 6.50601 62.4692 9.16316C62.4692 11.8203 64.2484 13.706 66.9253 13.706C69.0934 13.706 70.3989 12.4302 70.9429 11.4917L68.9758 10.7906C68.7813 11.1467 67.9967 11.8313 66.9253 11.8313C65.6758 11.8313 64.7835 11.0489 64.6121 9.85327H71.1253C71.1855 9.57161 71.2143 9.28413 71.211 8.99612C71.211 6.50601 69.3253 4.6203 66.9253 4.6203ZM64.6121 8.39173C64.8692 7.27744 65.6407 6.4203 66.9253 6.4203C68.1264 6.4203 68.8967 7.27744 69.0681 8.39173H64.6121Z" fill="#1D252C"/>
<path d="M35.2692 4.6203C32.6977 4.6203 30.812 6.50601 30.812 9.16316C30.812 11.8203 32.5878 13.706 35.2692 13.706C37.4373 13.706 38.7417 12.4302 39.2856 11.4917L37.3186 10.7906C37.1241 11.1467 36.3406 11.8313 35.2692 11.8313C34.0197 11.8313 33.1263 11.0489 32.9549 9.85327H39.4692C39.5294 9.57161 39.5581 9.28413 39.5549 8.99612C39.5549 6.50601 37.6692 4.6203 35.2692 4.6203ZM32.9549 8.39173C33.212 7.27744 33.9834 6.4203 35.2692 6.4203C36.4692 6.4203 37.2406 7.27744 37.412 8.39173H32.9549Z" fill="#1D252C"/>
<path d="M78.7022 1.34009H76.5593V3.48294H78.7022V1.34009Z" fill="#1D252C"/>
<path d="M84.6153 11.7346C83.3296 11.7346 82.3011 10.706 82.3011 9.16316C82.3011 7.6203 83.3296 6.59173 84.6153 6.59173C85.9011 6.59173 86.4153 7.44887 86.5868 7.96316L88.5274 7.27305C88.0571 6.05217 86.9033 4.6203 84.6153 4.6203C82.0439 4.6203 80.1582 6.50601 80.1582 9.16316C80.1582 11.8203 82.0439 13.706 84.6153 13.706C86.923 13.706 88.0769 12.2511 88.5384 10.9719L86.5868 10.2774C86.4153 10.8774 85.9011 11.7346 84.6153 11.7346Z" fill="#1D252C"/>
<path d="M71.4482 3.24448H72.6647V13.5346H74.8076V1.34009H71.4482V3.24448Z" fill="#1D252C"/>
<path d="M78.7022 4.79175H76.5593V13.5346H78.7022V4.79175Z" fill="#1D252C"/>
<path d="M89.6856 11.8577C89.5217 11.8553 89.3608 11.9017 89.2233 11.991C89.0858 12.0804 88.978 12.2086 88.9136 12.3593C88.8492 12.5101 88.8311 12.6766 88.8616 12.8377C88.8921 12.9988 88.9698 13.1472 89.0849 13.264C89.2 13.3808 89.3472 13.4607 89.5078 13.4936C89.6684 13.5264 89.8352 13.5108 89.9869 13.4486C90.1386 13.3864 90.2684 13.2805 90.3598 13.1444C90.4511 13.0082 90.4999 12.848 90.4999 12.6841C90.5035 12.5756 90.485 12.4675 90.4455 12.3664C90.406 12.2653 90.3464 12.1733 90.2702 12.096C90.194 12.0187 90.1029 11.9577 90.0024 11.9168C89.9019 11.8758 89.7941 11.8557 89.6856 11.8577ZM89.6856 13.3841C89.5467 13.3865 89.4102 13.3474 89.2935 13.272C89.1768 13.1966 89.0852 13.0881 89.0304 12.9604C88.9755 12.8327 88.9599 12.6916 88.9856 12.5551C89.0112 12.4185 89.0769 12.2926 89.1743 12.1935C89.2717 12.0944 89.3964 12.0265 89.5325 11.9985C89.6686 11.9705 89.8099 11.9837 89.9386 12.0363C90.0672 12.0889 90.1772 12.1786 90.2547 12.2939C90.3321 12.4093 90.3735 12.5451 90.3735 12.6841C90.3767 12.7756 90.3611 12.8668 90.3278 12.9522C90.2944 13.0375 90.244 13.1151 90.1796 13.1802C90.1152 13.2453 90.0382 13.2966 89.9532 13.3309C89.8683 13.3652 89.7772 13.3818 89.6856 13.3797V13.3841Z" fill="#1D252C"/>
<path d="M90.0407 12.5313C90.0405 12.4917 90.0322 12.4525 90.0162 12.4162C90.0003 12.3799 89.9771 12.3473 89.9481 12.3203C89.919 12.2933 89.8848 12.2726 89.8474 12.2594C89.81 12.2461 89.7703 12.2407 89.7308 12.2434H89.3638V13.105H89.4901V12.806H89.6055L89.9033 13.105H90.0605L89.7627 12.806C89.8358 12.8061 89.9061 12.7772 89.9581 12.7258C90.0102 12.6744 90.0398 12.6045 90.0407 12.5313V12.5313ZM89.4912 12.6797V12.3698H89.7308C89.7538 12.367 89.7771 12.3691 89.7992 12.3759C89.8213 12.3827 89.8417 12.3941 89.8591 12.4094C89.8766 12.4246 89.8906 12.4433 89.9003 12.4644C89.91 12.4854 89.9151 12.5082 89.9154 12.5313C89.9154 12.6225 89.8572 12.6797 89.7308 12.6797H89.4912Z" fill="#1D252C"/>
</g>
<defs>
<clipPath id="clip0_126_12159">
<rect width="90" height="17.4692" fill="white" transform="translate(0.5 0.265381)"/>
</clipPath>
</defs>
</svg>
