<svg width="91" height="20" viewBox="0 0 91 20" fill="none" xmlns="http://www.w3.org/2000/svg">
<g clip-path="url(#clip0_126_12247)">
<path d="M24.4862 11.9466V8.47786C24.4862 7.46786 23.965 6.89655 22.9223 6.89655C22.1604 6.89655 21.5288 7.29443 21.208 7.6821V7.01897H20.1553V11.9466H21.208V8.49826C21.4586 8.17179 21.9198 7.84533 22.4511 7.84533C23.0426 7.84533 23.4335 8.09018 23.4335 8.86553V11.9466H24.4862Z" fill="black"/>
<path d="M27.8985 12.069C28.6604 12.069 29.3722 11.814 29.8634 11.3446L29.3823 10.6406C29.0314 10.9978 28.4799 11.1916 27.9987 11.1916C27.0864 11.1916 26.545 10.5693 26.4648 9.83472H30.1943V9.56947C30.1943 8.01876 29.272 6.89655 27.8182 6.89655C26.3846 6.89655 25.3621 8.04937 25.3621 9.47765C25.3621 11.0385 26.4347 12.069 27.8985 12.069ZM29.1817 9.06957H26.4548C26.4949 8.47786 26.916 7.77392 27.8082 7.77392C28.7606 7.77392 29.1517 8.48806 29.1817 9.06957Z" fill="black"/>
<path d="M35.2835 11.9466L33.499 9.41646L35.1732 7.01898H33.9903L32.8373 8.68191L31.6944 7.01898H30.5114L32.1856 9.41646L30.4011 11.9466H31.5842L32.8474 10.1306L34.1005 11.9466H35.2835Z" fill="black"/>
<path d="M40.1366 11.9466V7.01898H39.0839V10.4775C38.8433 10.8039 38.3821 11.1201 37.8508 11.1201C37.2493 11.1201 36.8683 10.8754 36.8683 10.1102V7.01898H35.8157V10.5081C35.8157 11.5079 36.3369 12.069 37.3796 12.069C38.1415 12.069 38.7431 11.6813 39.0839 11.2936V11.9466H40.1366Z" fill="black"/>
<path d="M42.9676 12.069C44.2709 12.069 44.9827 11.4059 44.9827 10.5284C44.9827 8.56968 42.0552 9.2226 42.0552 8.35544C42.0552 8.00856 42.3961 7.74331 42.9475 7.74331C43.559 7.74331 44.0904 8.00856 44.3811 8.33502L44.8222 7.58008C44.3912 7.19241 43.7696 6.89655 42.9475 6.89655C41.7244 6.89655 41.0426 7.58008 41.0426 8.38603C41.0426 10.2836 43.9701 9.58987 43.9701 10.559C43.9701 10.9468 43.6393 11.212 43.0076 11.212C42.3861 11.212 41.7143 10.8855 41.3735 10.5284L40.8923 11.2936C41.3935 11.7935 42.1355 12.069 42.9676 12.069Z" fill="black"/>
<path d="M49.13 11.7519V8.61512C49.3387 8.28141 49.9252 7.99538 50.3725 7.99538C50.5017 7.99538 50.6011 8.00492 50.6906 8.02398V7.03241C50.0743 7.03241 49.4977 7.37564 49.13 7.81423V7.14682H48.0862V11.7519H49.13Z" fill="#29B473"/>
<path d="M53.5602 11.8663C54.3157 11.8663 55.0214 11.628 55.5085 11.1894L55.0313 10.5315C54.6834 10.8652 54.1367 11.0464 53.6596 11.0464C52.755 11.0464 52.2182 10.4648 52.1387 9.77831H55.8366V9.53042C55.8366 8.08119 54.922 7.03241 53.4806 7.03241C52.0592 7.03241 51.0452 8.10979 51.0452 9.44461C51.0452 10.9034 52.1088 11.8663 53.5602 11.8663ZM54.8325 9.06323H52.1287C52.1685 8.51024 52.586 7.85236 53.4707 7.85236C54.4151 7.85236 54.8027 8.51977 54.8325 9.06323Z" fill="#29B473"/>
<path d="M59.2525 11.8663C60.495 11.8663 61.3797 10.9606 61.3797 9.44461C61.3797 7.92864 60.495 7.03241 59.2525 7.03241C58.6262 7.03241 58.0696 7.31843 57.7117 7.77609V7.14682H56.668V13.5063H57.7117V11.1131C58.1093 11.5994 58.6461 11.8663 59.2525 11.8663ZM58.9443 10.9796C58.4572 10.9796 57.9403 10.6936 57.7117 10.3504V8.52931C57.9503 8.18606 58.4572 7.91911 58.9443 7.91911C59.7693 7.91911 60.3061 8.54837 60.3061 9.44461C60.3061 10.3408 59.7693 10.9796 58.9443 10.9796Z" fill="#29B473"/>
<path d="M64.4028 11.8663C65.9336 11.8663 66.8679 10.7603 66.8679 9.44461C66.8679 8.11933 65.9336 7.03241 64.4028 7.03241C62.872 7.03241 61.9375 8.11933 61.9375 9.44461C61.9375 10.7603 62.872 11.8663 64.4028 11.8663ZM64.4028 10.9796C63.5181 10.9796 63.021 10.2646 63.021 9.44461C63.021 8.63418 63.5181 7.91911 64.4028 7.91911C65.2974 7.91911 65.7844 8.63418 65.7844 9.44461C65.7844 10.2646 65.2974 10.9796 64.4028 10.9796Z" fill="#29B473"/>
<path d="M69.3851 11.8663C70.6774 11.8663 71.3831 11.2466 71.3831 10.4267C71.3831 8.59605 68.4804 9.20625 68.4804 8.39583C68.4804 8.07165 68.8184 7.82376 69.3651 7.82376C69.9715 7.82376 70.4984 8.07165 70.7867 8.37676L71.2241 7.67121C70.7966 7.30891 70.1803 7.03241 69.3651 7.03241C68.1524 7.03241 67.4765 7.67121 67.4765 8.42443C67.4765 10.1978 70.3791 9.54949 70.3791 10.4553C70.3791 10.8175 70.0511 11.0655 69.4248 11.0655C68.8085 11.0655 68.1425 10.7603 67.8045 10.4267L67.3274 11.1417C67.8244 11.6089 68.56 11.8663 69.3851 11.8663Z" fill="#29B473"/>
<path d="M72.7518 6.58432C73.1097 6.58432 73.398 6.30783 73.398 5.96459C73.398 5.62135 73.1097 5.34485 72.7518 5.34485C72.394 5.34485 72.1057 5.62135 72.1057 5.96459C72.1057 6.30783 72.394 6.58432 72.7518 6.58432ZM73.2688 11.7519V7.14686H72.225V11.7519H73.2688Z" fill="#29B473"/>
<path d="M75.8753 11.8663C76.3524 11.8663 76.6606 11.7329 76.8495 11.5708L76.601 10.808C76.5215 10.8939 76.3425 10.9797 76.1437 10.9797C75.8455 10.9797 75.6864 10.7413 75.6864 10.4267V8.01448H76.6606V7.14685H75.6864V5.88831H74.6426V7.14685H73.8474V8.01448H74.6426V10.6746C74.6426 11.4468 75.0601 11.8663 75.8753 11.8663Z" fill="#29B473"/>
<path d="M79.5764 11.8663C81.1072 11.8663 82.0416 10.7603 82.0416 9.44461C82.0416 8.11933 81.1072 7.03241 79.5764 7.03241C78.0455 7.03241 77.1111 8.11933 77.1111 9.44461C77.1111 10.7603 78.0455 11.8663 79.5764 11.8663ZM79.5764 10.9796C78.6917 10.9796 78.1946 10.2646 78.1946 9.44461C78.1946 8.63418 78.6917 7.91911 79.5764 7.91911C80.471 7.91911 80.9581 8.63418 80.9581 9.44461C80.9581 10.2646 80.471 10.9796 79.5764 10.9796Z" fill="#29B473"/>
<path d="M83.9524 11.7519V8.61512C84.1611 8.28141 84.7477 7.99538 85.195 7.99538C85.3242 7.99538 85.4236 8.00492 85.5131 8.02398V7.03241C84.8968 7.03241 84.3202 7.37564 83.9524 7.81423V7.14682H82.9087V11.7519H83.9524Z" fill="#29B473"/>
<path d="M85.9572 13.554C86.0963 13.5922 86.3946 13.6207 86.5437 13.6207C87.2892 13.6112 87.8559 13.3633 88.1839 12.5815L90.5 7.14685H89.3867L87.9851 10.5983L86.5834 7.14685H85.4602L87.4383 11.8091L87.1998 12.3336C87.0606 12.6387 86.8419 12.7341 86.5039 12.7341C86.3846 12.7341 86.2157 12.7054 86.1063 12.6577L85.9572 13.554Z" fill="#29B473"/>
<mask id="mask0_126_12247" style="mask-type:alpha" maskUnits="userSpaceOnUse" x="0" y="0" width="19" height="20">
<path d="M18.0862 0.172424H0.5V19.8276H18.0862V0.172424Z" fill="white"/>
</mask>
<g mask="url(#mask0_126_12247)">
<path d="M9.59266 12.7331V9.27199C9.7576 9.08841 9.95992 8.9406 10.1866 8.83806C10.4134 8.73551 10.6595 8.68049 10.9092 8.67652C11.0384 8.67279 11.1676 8.68371 11.2943 8.70909V7.36462C10.9668 7.37868 10.646 7.46011 10.3528 7.60358C10.0596 7.74706 9.80063 7.94938 9.59266 8.19735V7.49489H8.16675V12.7331H9.59266Z" fill="#29B473"/>
<path d="M0.5 4.90828V14.8545L9.2931 19.8276L18.0862 14.8545V5.42931L15.9284 6.64816V13.6356L9.2931 17.3853L2.65788 13.6356V6.13178L8.87959 2.61479V0.172424L0.5 4.90828Z" fill="#171321"/>
<path d="M9.73999 0.172424V2.61479L15.5814 5.91779L17.7394 4.69893L9.73999 0.172424Z" fill="#29B473"/>
</g>
</g>
<defs>
<clipPath id="clip0_126_12247">
<rect width="90" height="19.6552" fill="white" transform="translate(0.5 0.172424)"/>
</clipPath>
</defs>
</svg>
