<svg width="32" height="32" viewBox="0 0 32 32" fill="none" xmlns="http://www.w3.org/2000/svg">
<circle cx="16" cy="16" r="15.5" fill="#E8E7EB" stroke="#7759C2"/>
<path d="M16 16L32 16C32 7.16344 24.8366 0 16 0L16 16Z" fill="#E3D6FF"/>
<circle cx="16" cy="16" r="15.5" stroke="#7759C2"/>
<line x1="16.5" y1="16" x2="16.5" y2="1" stroke="#7759C2"/>
<line x1="16" y1="15.5" x2="31" y2="15.5" stroke="#7759C2"/>
<line x1="16.7348" y1="14.7348" x2="26.7348" y2="4.73484" stroke="#7759C2" stroke-width="0.75"/>
<line x1="16.7348" y1="11.7348" x2="24.7348" y2="3.73484" stroke="#7759C2" stroke-width="0.75"/>
<path d="M16.6464 8.64642L22.9999 2.5" stroke="#7759C2" stroke-width="0.75"/>
<path d="M16.6464 5.64642L20.9999 1.5" stroke="#7759C2" stroke-width="0.75"/>
<line x1="16.7348" y1="2.73483" x2="18.7348" y2="0.734835" stroke="#7759C2" stroke-width="0.75"/>
<path d="M18.6464 15.6464L27.9999 6.5" stroke="#7759C2" stroke-width="0.75"/>
<path d="M21.6464 15.6464L29.4999 8" stroke="#7759C2" stroke-width="0.75"/>
<path d="M24.6464 15.6464L30.4999 10" stroke="#7759C2" stroke-width="0.75"/>
<path d="M27.6464 15.6464L30.9999 12.5" stroke="#7759C2" stroke-width="0.75"/>
</svg>
